{
  "status": "ok",
  "results_time": "0.1376 sec.",
  "results_count": 104,
  "results": [
    {
      "task_id": 629265414,
      "se_id": 14,
      "loc_id": 2840,
      "key_id": 4342117,
      "post_id": "here is supposed to be your post ID 1",
      "post_key": "bill gates",
      "result_se_check_url": "https:\/\/google.com\/search?q=bill%20gates&hl=en&gl=US&gws_rd=cr&uule=w+CAIQIFISCQs2MuSEtepUEUK33kOSuTsc",
      "result_datetime": "2018-05-22 12:27:21 +00:00",
      "result_spell": "",
      "result_spell_type": "",
      "result_extra": "top_stories,twitter,people_also_ask,knowledge_graph,videos",
      "result_serp_count": 450000000,
      "result": {
        "left": [
          {
            "type": "top_stories",
            "position": 1,
            "items": [
              {
                "url": "http:\/\/www.businessinsider.com\/bill-gates-summer-reading-recommendations-2018-5",
                "title": "These are the 5 books Bill Gates recommends you read this summer",
                "date": "47 mins ago",
                "source": "CNBC.com"
              },
              {
                "url": "https:\/\/qz.com\/1282604\/your-summer-reading-list-provided-by-bill-gates-2\/",
                "title": "Your summer reading list, provided by Bill Gates",
                "date": "47 mins ago",
                "source": ""
              },
              {
                "url": "https:\/\/www.cnbc.com\/2018\/05\/22\/bill-gates-is-betting-on-this-synthetic-biology-start-up.html",
                "title": "Why Bill Gates is betting on a start-up that prints synthetic DNA",
                "date": "",
                "source": "CNBC.com"
              }
            ]
          },
          {
            "type": "organic",
            "position": 2,
            "featured_snippet": false,
            "image": false,
            "video": false,
            "url": "https:\/\/en.wikipedia.org\/wiki\/Bill_Gates",
            "breadcrumb": "https:\/\/en.wikipedia.org\/wiki\/Bill_Gates",
            "title": "Bill Gates - Wikipedia",
            "snippet": "William Henry Gates III (born October 28, 1955) is an American business magnate, investor, author, philanthropist, humanitarian, and principal founder of ...",
            "snippet_extra": "",
            "links": [],
            "stat": {
              "rating": 4.5,
              "rating_max": 5
            },
            "highlighted": [
              "William",
              "Gates"
            ]
          },
          {
            "type": "twitter",
            "position": 3,
            "url": "https://twitter.com/BillGates",
            "title": "Bill Gates (@BillGates) · Twitter",
            "items": [
              {
                "url": "https:\/\/twitter.com\/BillGates\/status\/998593941762199552",
                "tweet": "From Lincoln to Leonardo, I hope you enjoy my summer reading list. b-gat.es\/2s4hobZ",
                "date": "20 hours ago"
              },
              {
                "url": "https:\/\/twitter.com\/BillGates\/status\/997168620802199552",
                "tweet": "At @MDCollege, smarter advising is helping students go further faster. pic.twitter.com\/iWuEG8B…",
                "date": "5 days ago"
              },
              {
                "url": "https:\/\/twitter.com\/BillGates\/status\/997084318982901760",
                "tweet": "Glad to see this story told. I’m always inspired by the local leaders and health workers involved in the fight to #endpolio. b-gat.es\/2rLwl29",
                "date": "5 days ago"
              },
              {
                "url": "https:\/\/twitter.com\/BillGates\/status\/996862856883826690",
                "tweet": "In the early days of Microsoft, I felt pretty confident about my coding skills, but I had a lot to learn about management. I wish I had @johndoerr’s new book back then. b-gat.es\/2GoSeZQ",
                "date": "6 days ago"
              },
              {
                "url": "https:\/\/twitter.com\/BillGates\/status\/996793962793848832",
                "tweet": "France has been a leading champion in the fight against HIV\/AIDS, TB, and malaria.  Their generosity has helped us make terrific progress. twitter.com\/EmmanuelMac…",
                "date": "6 days ago"
              }
            ]
          },
          {
            "type": "local_pack",
            "position": 4,
            "title": "Pizza Express",
            "snippet": "Longtime pizza chain known for delivery",
            "phone": "586-235-584",
            "rating": 3.8,
            "rating_type": "stars",
            "rating_max": 5,
            "url": "",
            "paid": true
          },
          {
            "type": "local_pack",
            "position": 5,
            "title": "Pizza Pilgrims",
            "snippet": "Retro-style slice & pie joint",
            "phone": "",
            "rating": 4,
            "rating_type": "stars",
            "rating_max": 5,
            "url": "",
            "paid": false
          },
          {
            "type": "local_pack",
            "position": 6,
            "title": "Pizza Hut Restaurants",
            "snippet": "Thin-crust pizzas & Stone Street seating",
            "phone": "",
            "rating": 4.3,
            "rating_type": "stars",
            "rating_max": 5,
            "url": "",
            "paid": false
          },
          {
            "type": "images",
            "position": 7,
            "url": "https://www.google.com/search?q=search+volume&num=100&hl=en&gl=US&tbm=isch&tbo=u&source=univ&sa=X&ved=2ahUKEwjnl5PpgL_cAhVBElAKHTOYB_cQsAR6BAhSEAE",
            "title": "Images for search volume",
            "items": [
              {
                "url": "https://www.wordstream.com/blog/ws/2017/01/23/keyword-search-volume",
                "alt": "Image result for search volume"
              },
              {
                "url": "https://searchengineland.com/importance-monthly-versus-rolling-average-search-volume-225179",
                "alt": "Image result for search volume"
              },
              {
                "url": "https://ahrefs.com/blog/keyword-search-volume/",
                "alt": "Image result for search volume"
              }
            ]
          },
          {
            "type": "organic",
            "position": 8,
            "featured_snippet": false,
            "image": false,
            "video": false,
            "url": "https:\/\/www.entrepreneur.com\/article\/197526",
            "breadcrumb": "https:\/\/www.entrepreneur.com\/article\/197526",
            "title": "Bill Gates Biography - Entrepreneur",
            "snippet": "Bill Gates. Co-founder of Microsoft Corp. Founded: 1975. \"Ultimately, the PC will be a window to everything people are interested in-and everything we need to ...",
            "snippet_extra": "",
            "links": [],
            "stat": {
              "rating": 4.5,
              "rating_max": 5
            },
            "highlighted": [
              "Bill Gates"
            ]
          },
          {
            "type": "organic",
            "position": 9,
            "featured_snippet": false,
            "image": false,
            "video": false,
            "url": "https:\/\/www.forbes.com\/profile\/bill-gates\/",
            "breadcrumb": "https:\/\/www.forbes.com\/profile\/bill-gates\/",
            "title": "Bill Gates - Forbes",
            "snippet": "With his wife Melinda, Bill Gates chairs the Bill & Melinda Gates Foundation, the world's largest private charitable foundation. The foundation works to save lives ...",
            "snippet_extra": "",
            "links": [],
            "stat": [],
            "highlighted": [
              "Bill Gates"
            ]
          },
          {
            "type": "featured_snippet",
            "position": 10,
            "url": "https://www.myprotein.com/thezone/nutrition/pre-workout-foods/",
            "title": "Top 10 Pre Workout Foods - Myprotein",
            "snippet": "Eating a banana pre-workout is the perfect way to boost your glycogen stores and increase blood sugar levels.Chicken, Rice &amp; Vegetables. ... Greek Yogurt and Dried Fruit. ... Porridge and Oatmeal.Fruit Smoothies.Wholegrain Bread, Sweet Potato and Brown Rice. ... Apple Wedges and Peanut Butter.Omelette.Homemade Protein Bars.More items...",
            "table": {
              "table_header": [
                "Rank",
                "Country",
                "GDP (US$MM)"
              ],
              "table_data": [
                [
                  "1",
                  "United States",
                  "19,390,600"
                ],
                [
                  "—",
                  "European Union",
                  "17,308,862"
                ],
                [
                  "2",
                  "China",
                  "12,014,610"
                ],
                [
                  "3",
                  "Japan",
                  "4,872,135"
                ]
              ]
            }
          },
          {
            "type": "people_also_ask",
            "position": 11,
            "items": [
              {
                "title": "How much does Bill Gates make in a day?",
                "snippet_definition": "Search for: How much does Bill Gates make in a day?",
                "snippet_title": "What Warren Buffett Makes Per Hour - Business Insider",
                "snippet_url": "https://www.businessinsider.com/what-warren-buffett-makes-per-hour-2013-12",
                "snippet_domain": "www.businessinsider.com"
              },
              {
                "title": "How did Bill Gates get rich?",
                "snippet_definition": "Search for: How did Bill Gates get rich?",
                "snippet_title": "How did Bill Gates become so rich? - Quora",
                "snippet_url": "https://www.quora.com/How-did-Bill-Gates-become-so-rich",
                "snippet_domain": "www.quora.com"
              },
              {
                "title": "What did Bill Gates invent?",
                "snippet_definition": "Search for: What did Bill Gates invent?",
                "snippet_title": "Bill Gates - Microsoft, Family, Quotes &amp; Philanthropy - Biography",
                "snippet_url": "https://www.biography.com/business-figure/bill-gates",
                "snippet_domain": "www.biography.com"
              },
              {
                "title": "What religion is Bill Gates?",
                "snippet_definition": "Search for: What religion is Bill Gates?",
                "snippet_title": "Bill Gates - Wikipedia",
                "snippet_url": "https://en.m.wikipedia.org/wiki/Bill_Gates",
                "snippet_domain": "en.m.wikipedia.org"
              }
            ]
          },
          {
            "type": "organic",
            "position": 12,
            "featured_snippet": false,
            "image": false,
            "video": false,
            "url": "https:\/\/www.gatesfoundation.org\/",
            "breadcrumb": "https:\/\/www.gatesfoundation.org\/",
            "title": "Bill & Melinda Gates Foundation",
            "snippet": "We seek to unlock the possibility inside every individual. We see equal value in all lives. And so we are dedicated to improving the quality of life for individuals ...",
            "snippet_extra": "",
            "links": [],
            "stat": [],
            "highlighted": [
              "Bill Gates"
            ]
          },
          {
            "type": "app",
            "position": 13,
            "items": [
              {
                "url": "https://play.google.com/store/apps/details?id=com.rovio.angrybirds&amp;hl=en_US&amp;referrer=utm_source%3Dgoogle%26utm_medium%3Dorganic%26utm_term%3Dangry+birds&amp;pcampaignid=APPU_1_8dheW9-JG4T85gLY05XgBw",
                "title": "Angry Birds Classic",
                "snippet": "",
                "price": "Free"
              },
              {
                "url": "https://play.google.com/store/apps/details?id=com.rovio.baba&amp;hl=en_US&amp;referrer=utm_source%3Dgoogle%26utm_medium%3Dorganic%26utm_term%3Dangry+birds&amp;pcampaignid=APPU_1_8dheW9-JG4T85gLY05XgBw",
                "title": "Angry Birds 2",
                "snippet": "",
                "price": "Free"
              },
              {
                "url": "https://play.google.com/store/apps/details?id=com.rovio.angrybirds&amp;hl=en&amp;referrer=utm_source%3Dgoogle%26utm_medium%3Dorganic%26utm_term%3Dangry+birds&amp;pcampaignid=APPU_1_8dheW9-JG4T85gLY05XgBw",
                "title": "Angry Birds Classic",
                "snippet": "",
                "price": "Free"
              }
            ]
          },
          {
            "type": "shopping",
            "position": 14,
            "title": "Visa friluftsbyxa barn",
            "items": [
              {
                "title": "Robusta barn byxor e.s.motion 2020 146/152 kastanj/sjögrön engelbert strauss",
                "url": "https://www.engelbert-strauss.se/byxor-shorts-barn/midjebyxa-e-s-motion-2020-barn-3310040-63928-766.html?size=551&refcode=SEpla29",
                "price": "398,75 kr",
                "source": "engelbert strau...",
                "marketplace": "Av Google",
                "marketplace_url": "https://www.google.com/search?tbm=shop&q=friluftsbyxa%20barn"
              },
              {
                "title": "Fritidsbyxa Medelhavsblå Barn",
                "url": "https://www.jagarliv.nu/klader/barn-byxor/fritidsbyxa-medelhavsbla-barn.html",
                "price": "399,00 kr",
                "source": "Jägarliv",
                "marketplace": "Av Google",
                "marketplace_url": "https://www.google.com/search?tbm=shop&q=friluftsbyxa%20barn"
              }
            ]
          },
          {
            "type": "answer_box",
            "position": 15,
            "text": [
              "https://www.youtube.com/watch?v=-d7eYGLaiFk",
              "OJO NGUBER WELAS - NELLA KHARISMA - YouTube",
              "Artis",
              "Nella Kharisma",
              "Album",
              "Melon Best Nella - Rupo Lan Dunyo",
              "Dirilis",
              "2016"
            ],
            "links": [
              {
                "url": "https://www.youtube.com/watch?v=-d7eYGLaiFk",
                "anchor": "OJO NGUBER WELAS - NELLA KHARISMA - YouTube"
              }
            ]
          },
          {
            "type": "map",
            "position": 16,
            "url": "https://www.google.com/maps/place/Andes/data=!4m2!3m1!1s0x968792fc5a4e9d2f:0x8b16530d02147954?hl=en&sa=X&ved=2ahUKEwjhw_q_sMncAhXGqFkKHY3cCDYQ8gEwAHoECAQQAQ",
            "title": "Andes"
          },
          {
            "type": "video",
            "position": 17,
            "items": [
              {
                "url": "https://www.noticiasagricolas.com.br/videos/boi/218168-entrevista-com-frederico-borges-stella-presidente-do-sindicato-rural-de-aquidauana-ms.html",
                "title": "Preços da arroba do boi em Aquidauana-MS reagem com recuo da oferta, mas \nainda estão abaixo das necessidades dos pecuaristas",
                "source": "Notícias Agrícolas"
              },
              {
                "url": "http://g1.globo.com/mato-grosso-do-sul/mstv-1edicao/videos/t/edicoes/v/jovem-confessa-que-matou-e-congelou-corpo-de-idoso-em-aquidauana/6853090/",
                "title": "Jovem confessa que matou e congelou corpo de idoso em ...",
                "source": "G1 - Globo.com"
              },
              {
                "url": "http://g1.globo.com/mato-grosso-do-sul/mstv-1edicao/videos/v/aquidauana-tem-casas-alagadas-e-rodovia-interditada/6517826/",
                "title": "Aquidauana tem casas alagadas e rodovia interditada - G1 Mato ...",
                "source": "G1 - Globo.com"
              }
            ]
          },
          {
            "type": "google_flights",
            "position": 18,
            "title": "Flights from London, United Kingdom (all airports) to Berlin, Germany (all airports)",
            "url": "https://www.google.com/flights?num=100&hl=en&source=flun&lite=0&uitype=cuAA&tfs=CAEQAhooEgoyMDE4LTA5LTIwagwIAhIIL20vMDRqcGxyDAgCEggvbS8wMTU2cRooEgoyMDE4LTA5LTIzagwIAhIIL20vMDE1NnFyDAgCEggvbS8wNGpwbA&sa=X&ved=2ahUKEwjigrv43MncAhWLxKYKHbGMB7sQuRUwAHoECAYQAw",
            "items": [
              {
                "url": "https://www.google.com/flights?num=100&amp;hl=en&amp;source=flun&amp;lite=0&amp;uitype=cuAA&amp;tfs=CAEQAhouEgoyMDE4LTA5LTIwKAAyAkZSagwIAhIIL20vMDRqcGxyDAgCEggvbS8wMTU2cRouEgoyMDE4LTA5LTI0KAAyAkZSagwIAhIIL20vMDE1NnFyDAgCEggvbS8wNGpwbA&amp;sa=X&amp;ved=2ahUKEwjXwufGzr_cAhUK66QKHcaOBboQ1RUoADAAegQIBBAQ",
                "description": "Ryanair     1h 50m  Non-stop     from €66"
              },
              {
                "url": "https://www.google.com/flights?num=100&amp;hl=en&amp;source=flun&amp;lite=0&amp;uitype=cuAA&amp;tfs=CAEQAhouEgoyMDE4LTA5LTIwKAAyAlUyagwIAhIIL20vMDRqcGxyDAgCEggvbS8wMTU2cRouEgoyMDE4LTA5LTI0KAAyAlUyagwIAhIIL20vMDE1NnFyDAgCEggvbS8wNGpwbA&amp;sa=X&amp;ved=2ahUKEwjXwufGzr_cAhUK66QKHcaOBboQ1RUoATAAegQIBBAR",
                "description": "easyJet     1h 50m  Non-stop     from €74"
              },
              {
                "url": "https://www.google.com/flights?num=100&amp;hl=en&amp;source=flun&amp;lite=0&amp;uitype=cuAA&amp;tfs=CAEQAhouEgoyMDE4LTA5LTIwKAAyAkVXagwIAhIIL20vMDRqcGxyDAgCEggvbS8wMTU2cRouEgoyMDE4LTA5LTI0KAAyAkVXagwIAhIIL20vMDE1NnFyDAgCEggvbS8wNGpwbA&amp;sa=X&amp;ved=2ahUKEwjXwufGzr_cAhUK66QKHcaOBboQ1RUoAjAAegQIBBAS",
                "description": "Eurowings     1h 50m  Non-stop     from €119"
              }
            ]
          },
          {
            "type": "jobs",
            "position": 19,
            "title": "Jobs Near Philadelphia, PA",
            "url": "",
            "items": [
              {
                "title": "Cleaner",
                "url": "https://www.google.com.ua/search?hl=en&ei=zOxVW8m8F6rM6ATM4YaACw&q=philadelphia+department+of+health+jobs++++++++++++++++++++++++&oq=philadelphia+department+of+health+jobs++++++++++++++++++++++++&gs_l=psy-ab.12..0i22i30k1l3.13420.13420.0.14496.1.1.0.0.0.0.96.96.1.1.0....0...1c.1.64.psy-ab..0.1.95....0.fnNOCW1bsw4&ibp=htl;jobs#htidocid=CPe0N2zxBNIkWYd4AAAAAA%3D%3D",
                "snippet": "Public Health Management Corporation",
                "author": "via ZipRecruiter",
                "date": "Over 1 month ago",
                "type": "Contractor"
              },
              {
                "title": "Morning Cleaner",
                "url": "https://www.google.com.ua/search?hl=en&ei=zOxVW8m8F6rM6ATM4YaACw&q=philadelphia+department+of+health+jobs++++++++++++++++++++++++&oq=philadelphia+department+of+health+jobs++++++++++++++++++++++++&gs_l=psy-ab.12..0i22i30k1l3.13420.13420.0.14496.1.1.0.0.0.0.96.96.1.1.0....0...1c.1.64.psy-ab..0.1.95....0.fnNOCW1bsw4&ibp=htl;jobs#htidocid=oR8qq-x07ejC09RFAAAAAA%3D%3D",
                "snippet": "Temple University College of Public Health",
                "author": "via ChronicleVitae",
                "date": "4 days ago",
                "type": "Full-time"
              },
              {
                "title": "Full-time Cleaner",
                "url": "https://www.google.com.ua/search?hl=en&ei=zOxVW8m8F6rM6ATM4YaACw&q=philadelphia+department+of+health+jobs++++++++++++++++++++++++&oq=philadelphia+department+of+health+jobs++++++++++++++++++++++++&gs_l=psy-ab.12..0i22i30k1l3.13420.13420.0.14496.1.1.0.0.0.0.96.96.1.1.0....0...1c.1.64.psy-ab..0.1.95....0.fnNOCW1bsw4&ibp=htl;jobs#htidocid=ijfp0BQIh6eWdTolAAAAAA%3D%3D",
                "snippet": "Pepper Hamilton",
                "author": "via Glassdoor",
                "date": "27 days ago",
                "type": "Full-time"
              }
            ]
          },
          {
            "type": "carousel",
            "position": 20,
            "title": "Backup Software",
            "items": [
              {
                "title": "Backup and RestoreProprietary software",
                "sub_title": "Cambridge"
              },
              {
                "title": "Acronis True ImageProprietary software",
                "sub_title": "Los Angeles"
              },
              {
                "title": "Macrium ReflectFreeware",
                "sub_title": "New York"
              },
              {
                "title": "System Restore",
                "sub_title": "New York"
              }
            ]
          },
          {
            "type": "organic",
            "position": 99,
            "featured_snippet": false,
            "image": true,
            "video": false,
            "url": "https://www.microsoft.com/en-us/store/b/home",
            "breadcrumb": "https://www.microsoft.com/en-us/store/b/home",
            "title": "Microsoft Store Online",
            "snippet": "At Microsoft our mission and values are to help people and businesses throughout the world realize their full potential.",
            "snippet_extra": "",
            "links": [
              {
                "title": "Microsoft Store Online",
                "url": "https://www.microsoft.com/en-us/store/b/home",
                "snippet": "Microsoft Store OnlinePCs - Xbox - Xbox Games - Download Windows 10 - ..."
              },
              {
                "title": "Windows 10",
                "url": "https://www.microsoft.com/en-us/windows",
                "snippet": "Windows 10Windows 10 unveils new innovations & is better than ever ..."
              }
            ],
            "stat": [],
            "highlighted": []
          },
          {
            "type": "paid",
            "position": 100,
            "url": "https://www.booking.com/city/gb/london.html",
            "title": "2880 Hotels in London | Lowest Price Guarantee | booking.com",
            "snippet_row1": "Book for Tomorrow",
            "snippet_row2": "",
            "links": [],
            "stat": [],
            "highlighted": [
              "Bill",
              "Gates"
            ]
          },
          {
            "type": "organic",
            "position": 101,
            "featured_snippet": false,
            "image": false,
            "video": false,
            "url": "https:\/\/blogs.scientificamerican.com\/observations\/bill-gates-in-search-of-nuclear-nirvana\/",
            "breadcrumb": "https:\/\/blogs.scientificamerican.com\/observations\/bill-gates-in-search-of-nuclear-nirvana\/",
            "title": "Bill Gates in Search of Nuclear Nirvana - Scientific American Blog ...",
            "snippet": "May 2, 2018 - Bill Gates originally became famous (and rich) for co-founding Microsoft; more recently, he's become better known, through the Bill and Melinda ...",
            "snippet_extra": "",
            "links": [],
            "stat": [],
            "highlighted": []
          },
          {
            "type": "organic",
            "position": 102,
            "featured_snippet": false,
            "image": false,
            "video": false,
            "url": "https:\/\/www.recode.net\/2018\/5\/14\/17350538\/john-doerr-measure-what-matters-book-kleiner-perkins-okrs-kara-swisher-teddy-schleifer-podcast",
            "breadcrumb": "https:\/\/www.recode.net\/2018\/5\/14\/17350538\/john-doerr-measure-what-matters-book-kleiner-perkins-okrs-kara-swisher-teddy-schleifer-podcast",
            "title": "Kleiner Perkins' John Doerr explains how to run your company like Bill ...",
            "snippet": "May 14, 2018 - ... (in which he was an early investor), the Bill & Melinda Gates Foundation and the One Campaign, a nonprofit founded by U2 frontman Bono.",
            "snippet_extra": "",
            "links": [],
            "stat": [],
            "highlighted": []
          },
          {
            "type": "related",
            "position": 105,
            "items": [
              "london to berlin flight time",
              "cheapest time to fly to berlin",
              "easyjet flights to berlin",
              "flight to berlin germany",
              "london to berlin train",
              "direct flights to berlin",
              "london to berlin flight duration",
              "best time to book flights to berlin"
            ]
          },
          {
            "type": "mention",
            "position": 106,
            "title": "Best Headphones &amp; Headsets",
            "items": [
              {
                "title": "Apple EarPods",
                "price": "$21+",
                "rating": 4.3,
                "rating_type": "max_5",
                "count_ratings": 37817,
                "mentioned_in": [
                  {
                    "title": "Best earbuds 2019: the best earbuds, earphones and in-ear headphones for any budget",
                    "url": "https://www.techradar.com/news/audio/best-in-ear-headphones-1276925"
                  },
                  {
                    "title": "Best headphones 2019: Your definitive guide to the latest and greatest audio",
                    "url": "https://www.techradar.com/news/audio/portable-audio/best-headphones-1280340"
                  }
                ]
              },
              {
                "title": "Sony WH-1000XM3",
                "price": "$300+",
                "rating": 4.7,
                "rating_type": "max_5",
                "count_ratings": 4115,
                "mentioned_in": [
                  {
                    "title": "Best Headphones for 2019",
                    "url": "https://www.cnet.com/topics/headphones/best-headphones/"
                  },
                  {
                    "title": "Best over-ear headphones 2019: the best-sounding, most comfortable cans",
                    "url": "https://www.techradar.com/news/audio/portable-audio/best-over-ear-headphones-1280342"
                  }
                ]
              }
            ]
          }
        ],
        "right": [
          {
            "type": "knowledge_graph",
            "position": 1,
            "url": "https:\/\/en.wikipedia.org\/wiki\/Bill_Gates",
            "title": "Bill Gates",
            "subtitle": "",
            "description": "William Henry Gates III is an American business magnate, investor, author, philanthropist, humanitarian, and principal founder of Microsoft Corporation.",
            "parts": [
              {
                "text": "gatesnotes.com",
                "url": "https://www.gatesnotes.com/",
                "anchor": "gatesnotes.com"
              },
              {
                "text": "Description William Henry Gates III is an American business magnate, investor, author, philanthropist, and humanitarian. He is best known as the principal founder of Microsoft Corporation.   Wikipedia",
                "url": "https://en.wikipedia.org/wiki/Bill_Gates",
                "anchor": "Wikipedia"
              },
              {
                "text": "Born :  October 28, 1955 (age 63 years),  Seattle, WA",
                "url": "https://www.google.com/search?num=100&hl=en&gl=US&q=bill+gates+born&stick=H4sIAAAAAAAAAOPgE-LQz9U3MDTPK9ESy0620i9IzS_ISQVSRcX5eVZJ-UV5i1j5kzJzchTSE0tSixVAIgB7lxuyNgAAAA&sa=X&ved=2ahUKEwjykMulpp3hAhVPAHIKHT0EAlgQ6BMoADCKAXoECGMQBg",
                "anchor": "Born"
              },
              {
                "text": "Born :  October 28, 1955 (age 63 years),  Seattle, WA",
                "url": "https://www.google.com/search?num=100&hl=en&gl=US&q=Seattle&stick=H4sIAAAAAAAAAOPgE-LQz9U3MDTPK1ECs1Iss4q0xLKTrfQLUvMLclKBVFFxfp5VUn5R3iJW9uDUxJKSnFQA3EAC8jgAAAA&sa=X&ved=2ahUKEwjykMulpp3hAhVPAHIKHT0EAlgQmxMoATCKAXoECGMQBw",
                "anchor": "Seattle, WA"
              },
              {
                "text": "Net worth :  98.3 billion USD (2019)",
                "url": "https://www.google.com/search?num=100&hl=en&gl=US&q=bill+gates+net+worth&stick=H4sIAAAAAAAAAOPgE-LQz9U3MDTPK9GSzk620i9IzS_ISQVSRcX5eVZ5qSUK5flFJRmLWEWSMnNyFNITS1KLFeDCAM9_Xi1AAAAA&sa=X&ved=2ahUKEwjykMulpp3hAhVPAHIKHT0EAlgQ6BMoADCMAXoECGMQCg",
                "anchor": "Net worth"
              },
              {
                "text": "Spouse :  Melinda Gates  (m. 1994)",
                "url": "https://www.google.com/search?num=100&hl=en&gl=US&q=bill+gates+spouse&stick=H4sIAAAAAAAAAOPgE-LQz9U3MDTPK9GSyE620i9IzS_ISQVSRcX5eVbFBfmlxamLWAWTMnNyFNITS1KLFSBiAGKiWBc6AAAA&sa=X&ved=2ahUKEwjykMulpp3hAhVPAHIKHT0EAlgQ6BMoADCNAXoECGMQDQ",
                "anchor": "Spouse"
              },
              {
                "text": "Spouse :  Melinda Gates  (m. 1994)",
                "url": "https://www.google.com/search?num=100&hl=en&gl=US&q=Melinda+Gates&stick=H4sIAAAAAAAAAOPgE-LQz9U3MDTPK1ECs1JyC0y0JLKTrfQLUvMLclKBVFFxfp5VcUF-aXHqIlZe39SczLyURAX3xJLUYgAPK94WQAAAAA&sa=X&ved=2ahUKEwjykMulpp3hAhVPAHIKHT0EAlgQmxMoATCNAXoECGMQDg",
                "anchor": "Melinda Gates"
              }
            ],
            "card_id": "/m/01zczs"
          },
          {
            "type": "google_review",
            "position": 2,
            "reviews_count": 2657,
            "place_id": "ChIJ6UCP2tygJ0ERRJmMWID1zMA"
          }
        ]
      }
    }
  ]
}